…
all.mice <-read.excel.sheet('NPCTG.xlsx')

all.mice <- all.mice %>% rename(c('ID.RUN'='ID'))

all.mice <- all.mice %>% 
  mutate(
    Run= str_extract(all.mice$ID.RUN,'RUN[0-9]+'),
    ID= str_extract(all.mice$ID.RUN,'[A-Z]{4,5}[0-9]{3}\\.[0-9][a-z]'),
    Group= str_extract(all.mice$ID.RUN,'^[A-Z]+')
  )
all.mice %>% select(ID,Group,Run,ID.RUN,everything())
```

    ## # A tibble: 29,379 x 8
    ##    ID         Group Run   ID.RUN         Point      t      X     Y
    ##    <chr>      <chr> <chr> <chr>          <chr>  <dbl>  <dbl> <dbl>
    ##  1 WTUT292.2e WTUT  RUN1  WTUT292.2eRUN1 Head  0      -121.  -6.83
    ##  2 WTUT292.2e WTUT  RUN1  WTUT292.2eRUN1 Head  0.0100 -117.  -7.04
    ##  3 WTUT292.2e WTUT  RUN1  WTUT292.2eRUN1 Head  0.0200 -113.  -6.89
    ##  4 WTUT292.2e WTUT  RUN1  WTUT292.2eRUN1 Head  0.0300 -111.  -6.96
    ##  5 WTUT292.2e WTUT  RUN1  WTUT292.2eRUN1 Head  0.0400 -108.  -6.68
    ##  6 WTUT292.2e WTUT  RUN1  WTUT292.2eRUN1 Head  0.0500 -104.  -6.73
    ##  7 WTUT292.2e WTUT  RUN1  WTUT292.2eRUN1 Head  0.0600 -101.  -6.43
    ##  8 WTUT292.2e WTUT  RUN1  WTUT292.2eRUN1 Head  0.0700  -98.6 -6.83
    ##  9 WTUT292.2e WTUT  RUN1  WTUT292.2eRUN1 Head  0.08    -94.8 -6.86
    ## 10 WTUT292.2e WTUT  RUN1  WTUT292.2eRUN1 Head  0.09    -90.8 -6.77
    ## # … with 29,369 more rows
…
