Update
…
Update

Behavior analysis update

1. Tranditional analysis (descriptive analysis)

Data sets definition

1. all.mice : import data from xls

## # A tibble: 32,439 x 8
##    ID         Group Run   ID.RUN         Point      t      X     Y
##    <chr>      <chr> <chr> <chr>          <chr>  <dbl>  <dbl> <dbl>
##  1 WTUT292.2e WTUT  RUN1  WTUT292.2eRUN1 Head  0      -121.  -6.83
##  2 WTUT292.2e WTUT  RUN1  WTUT292.2eRUN1 Head  0.0100 -117.  -7.04
##  3 WTUT292.2e WTUT  RUN1  WTUT292.2eRUN1 Head  0.0200 -113.  -6.89
##  4 WTUT292.2e WTUT  RUN1  WTUT292.2eRUN1 Head  0.0300 -111.  -6.96
##  5 WTUT292.2e WTUT  RUN1  WTUT292.2eRUN1 Head  0.0400 -108.  -6.68
##  6 WTUT292.2e WTUT  RUN1  WTUT292.2eRUN1 Head  0.0500 -104.  -6.73
##  7 WTUT292.2e WTUT  RUN1  WTUT292.2eRUN1 Head  0.0600 -101.  -6.43
##  8 WTUT292.2e WTUT  RUN1  WTUT292.2eRUN1 Head  0.0700  -98.6 -6.83
##  9 WTUT292.2e WTUT  RUN1  WTUT292.2eRUN1 Head  0.08    -94.8 -6.86
## 10 WTUT292.2e WTUT  RUN1  WTUT292.2eRUN1 Head  0.09    -90.8 -6.77
## #  with 32,429 more rows
…
